[
    {
        "id": 1,
        "parent_id": 0,
        "organization_code": "president-office",
        "organization_name": "President Office",
        "supervisor_id": "0101001",
        "is_active": true
    },
    {
        "id": 2,
        "parent_id": 1,
        "organization_code": "business-dev",
        "organization_name": "Business Development Dept.",
        "supervisor_id": "0101002",
        "is_active": true
    },
    {
        "id": 3,
        "parent_id": 4,
        "organization_code": "product-design",
        "organization_name": "Product Design Dept.",
        "supervisor_id": "0101003",
        "is_active": true
    },
    {
        "id": 4,
        "parent_id": 1,
        "organization_code": "product-dev",
        "organization_name": "Product Development Div.",
        "supervisor_id": "0101003",
        "is_active": true
    },
    {
        "id": 5,
        "parent_id": 4,
        "organization_code": "app-dev",
        "organization_name": "Application Development Dept.",
        "supervisor_id": "0101004",
        "is_active": true
    }
]

